{
    "$schema": "schema://brill.software/page_schema.json",
    "pageDescrip": "Div Component",
    "permission": "cms_user",
    "rootComponent": {
        "id": "ErrorBoundary",
        "module": "react/ErrorBoundary",
        "attributes": {},
        "children": [
            {
                "id": "ThemeProvider",
                "module": "material_ui/theme/ThemeProvider",
                "attributes": {
                    "style": {
                        "minHeight": "100vh",
                        "padding": "20px"
                    },
                    "themeTopic": "/Themes/storybook_theme_light.json",
                    "themeTopicDark": "/Themes/storybook_theme_dark.json"
                },
                "children": [
                    {
                        "id": "Module",
                        "module": "material_ui/text/Typography",
                        "attributes": {
                            "variant": "h3",
                            "gutterBottom": true,
                            "text": "html/Div"
                        }
                    },
                    {
                        "id": "Attributes",
                        "module": "material_ui/text/Xhtml",
                        "attributes": {
                            "text": "<p>\n<table cellpadding=\"7\">\n<tr><td>condition [optional]</td><td>JavaScript - the contents of the Div are only displayed if the JavaScript returns true.</td></tr>\n<tr><td>text [optional]</td><td>Initial text.</td></tr>\n<tr><td>subscribeToTopic [optional]</td><td>Topic to subscribe to for the text.</td></tr>\n<tr><td>bgImageTopic [optional]</td><td>Specifies the topic for an image to be used for the background.</td></tr>\n<tr><td>backgroundImage [optional]</td><td>Specifies the path of a static image on the server to be use for the background.</td></tr>\n</table>\n</p>"
                        }
                    },
                    {
                        "id": "Condition",
                        "module": "html/Div",
                        "attributes": {
                            "condition": "return userHasPermission('cms_developer');",
                            "style": {
                                "paddingTop": "1rem",
                                "marginBottom": "0.75rem",
                                "fontSize": "1.5rem",
                                "lineHeight": "2rem",
                                "fontWeight": 900,
                                "color": "grey"
                            },
                            "text": "You have the cms_developer permission."
                        }
                    },
                    {
                        "id": "Padding",
                        "module": "html/Div",
                        "attributes": {
                            "style": {
                                "padding": "10px"
                            }
                        }
                    },
                    {
                        "id": "Vertically Scrollable",
                        "module": "html/Div",
                        "attributes": {
                            "style": {
                                "overflowY": "auto"
                            }
                        }
                    },
                    {
                        "id": "Div with HR styling",
                        "module": "html/Div",
                        "attributes": {
                            "style": {
                                "display": "block",
                                "marginTop": "0.5em",
                                "marginBottom": "0.5em",
                                "borderStyle": "inset",
                                "borderWidth": "1px"
                            }
                        }
                    },
                    {
                        "id": "Flex Row Layout",
                        "module": "html/Div",
                        "attributes": {
                            "style": {
                                "display": "flex",
                                "flexDirection": "row",
                                "flexWrap": "wrap"
                            }
                        },
                        "children": [
                            {
                                "id": "Item-1",
                                "module": "html/Div",
                                "attributes": {
                                    "style": {
                                        "margin": "10px",
                                        "width": "40px",
                                        "height": "40px",
                                        "background": "#B91C1C"
                                    }
                                }
                            },
                            {
                                "id": "Item-2",
                                "module": "html/Div",
                                "attributes": {
                                    "style": {
                                        "margin": "10px",
                                        "width": "40px",
                                        "height": "40px",
                                        "background": "#047857"
                                    }
                                }
                            },
                            {
                                "id": "Item-3",
                                "module": "html/Div",
                                "attributes": {
                                    "style": {
                                        "margin": "10px",
                                        "width": "40px",
                                        "height": "40px",
                                        "background": "#1D4ED8"
                                    }
                                }
                            }
                        ]
                    },
                    {
                        "id": "Flex Row Right Aligned",
                        "module": "html/Div",
                        "attributes": {
                            "style": {
                                "display": "flex",
                                "flexDirection": "row",
                                "flexWrap": "wrap",
                                "justifyContent": "flex-end"
                            }
                        },
                        "children": [
                            {
                                "id": "Item-1",
                                "module": "html/Div",
                                "attributes": {
                                    "style": {
                                        "margin": "10px",
                                        "width": "40px",
                                        "height": "40px",
                                        "background": "#B91C1C"
                                    }
                                }
                            },
                            {
                                "id": "Item-2",
                                "module": "html/Div",
                                "attributes": {
                                    "style": {
                                        "margin": "10px",
                                        "width": "40px",
                                        "height": "40px",
                                        "background": "#047857"
                                    }
                                }
                            },
                            {
                                "id": "Item-3",
                                "module": "html/Div",
                                "attributes": {
                                    "style": {
                                        "margin": "10px",
                                        "width": "40px",
                                        "height": "40px",
                                        "background": "#1D4ED8"
                                    }
                                }
                            }
                        ]
                    },
                    {
                        "id": "Flex Row Center Aligned",
                        "module": "html/Div",
                        "attributes": {
                            "style": {
                                "display": "flex",
                                "flexDirection": "row",
                                "flexWrap": "wrap",
                                "justifyContent": "center"
                            }
                        },
                        "children": [
                            {
                                "id": "Item-1",
                                "module": "html/Div",
                                "attributes": {
                                    "style": {
                                        "margin": "10px",
                                        "width": "40px",
                                        "height": "40px",
                                        "background": "#B91C1C"
                                    }
                                }
                            },
                            {
                                "id": "Item-2",
                                "module": "html/Div",
                                "attributes": {
                                    "style": {
                                        "margin": "10px",
                                        "width": "40px",
                                        "height": "40px",
                                        "background": "#047857"
                                    }
                                }
                            },
                            {
                                "id": "Item-3",
                                "module": "html/Div",
                                "attributes": {
                                    "style": {
                                        "margin": "10px",
                                        "width": "40px",
                                        "height": "40px",
                                        "background": "#1D4ED8"
                                    }
                                }
                            }
                        ]
                    },
                    {
                        "id": "Flex Column Layout",
                        "module": "html/Div",
                        "attributes": {
                            "style": {
                                "display": "flex",
                                "flexDirection": "column"
                            }
                        },
                        "children": [
                            {
                                "id": "Item-1",
                                "module": "html/Div",
                                "attributes": {
                                    "style": {
                                        "margin": "10px",
                                        "width": "40px",
                                        "height": "40px",
                                        "background": "#B91C1C"
                                    }
                                }
                            },
                            {
                                "id": "Item-2",
                                "module": "html/Div",
                                "attributes": {
                                    "style": {
                                        "margin": "10px",
                                        "width": "40px",
                                        "height": "40px",
                                        "background": "#047857"
                                    }
                                }
                            },
                            {
                                "id": "Item-3",
                                "module": "html/Div",
                                "attributes": {
                                    "style": {
                                        "margin": "10px",
                                        "width": "40px",
                                        "height": "40px",
                                        "background": "#1D4ED8"
                                    }
                                }
                            }
                        ]
                    },
                    {
                        "id": "Grid Layout",
                        "module": "html/Div",
                        "attributes": {
                            "style": {
                                "display": "flex",
                                "flexDirection": "column"
                            }
                        },
                        "children": [
                            {
                                "id": "Row-1",
                                "module": "html/Div",
                                "attributes": {
                                    "style": {
                                        "display": "flex",
                                        "flexDirection": "row"
                                    }
                                },
                                "children": [
                                    {
                                        "id": "Item-1",
                                        "module": "html/Div",
                                        "attributes": {
                                            "style": {
                                                "margin": "10px",
                                                "width": "40px",
                                                "height": "40px",
                                                "background": "#B91C1C"
                                            }
                                        }
                                    },
                                    {
                                        "id": "Item-2",
                                        "module": "html/Div",
                                        "attributes": {
                                            "style": {
                                                "margin": "10px",
                                                "width": "40px",
                                                "height": "40px",
                                                "background": "#047857"
                                            }
                                        }
                                    },
                                    {
                                        "id": "Item-3",
                                        "module": "html/Div",
                                        "attributes": {
                                            "style": {
                                                "margin": "10px",
                                                "width": "40px",
                                                "height": "40px",
                                                "background": "#1D4ED8"
                                            }
                                        }
                                    }
                                ]
                            },
                            {
                                "id": "Row-2",
                                "module": "html/Div",
                                "attributes": {
                                    "style": {
                                        "display": "flex",
                                        "flexDirection": "row"
                                    }
                                },
                                "children": [
                                    {
                                        "id": "Item-1",
                                        "module": "html/Div",
                                        "attributes": {
                                            "style": {
                                                "margin": "10px",
                                                "width": "40px",
                                                "height": "40px",
                                                "background": "#B91C1C"
                                            }
                                        }
                                    },
                                    {
                                        "id": "Item-2",
                                        "module": "html/Div",
                                        "attributes": {
                                            "style": {
                                                "margin": "10px",
                                                "width": "40px",
                                                "height": "40px",
                                                "background": "#047857"
                                            }
                                        }
                                    },
                                    {
                                        "id": "Item-3",
                                        "module": "html/Div",
                                        "attributes": {
                                            "style": {
                                                "margin": "10px",
                                                "width": "40px",
                                                "height": "40px",
                                                "background": "#1D4ED8"
                                            }
                                        }
                                    }
                                ]
                            }
                        ]
                    },
                    {
                        "id": "Background Image - topic",
                        "module": "html/Div",
                        "attributes": {
                            "bgImageTopic": "/Images/background.jpg",
                            "style": {
                                "position": "relative",
                                "display": "flex",
                                "flexDirection": "row",
                                "backgroundSize": "cover",
                                "height": "80px"
                            }
                        },
                        "children": [
                            {
                                "id": "Border",
                                "module": "html/Div",
                                "attributes": {
                                    "style": {
                                        "margin": "10px",
                                        "width": "40px",
                                        "height": "40px",
                                        "borderStyle": "solid",
                                        "borderColor": "white",
                                        "borderWidth": "1px"
                                    }
                                }
                            },
                            {
                                "id": "Shadow",
                                "module": "html/Div",
                                "attributes": {
                                    "style": {
                                        "margin": "10px",
                                        "width": "40px",
                                        "height": "40px",
                                        "background": "#B91C1C",
                                        "boxShadow": "5px 10px 18px"
                                    }
                                }
                            },
                            {
                                "id": "Rounded",
                                "module": "html/Div",
                                "attributes": {
                                    "style": {
                                        "margin": "10px",
                                        "width": "40px",
                                        "height": "40px",
                                        "background": "yellow",
                                        "borderRadius": "10px"
                                    }
                                }
                            },
                            {
                                "id": "Opacity",
                                "module": "html/Div",
                                "attributes": {
                                    "style": {
                                        "margin": "10px",
                                        "width": "40px",
                                        "height": "40px",
                                        "background": "#1D4ED8",
                                        "opacity": "0.3"
                                    }
                                }
                            },
                            {
                                "id": "Topic",
                                "module": "html/Div",
                                "attributes": {
                                    "subscribeToTopic": "username",
                                    "style": {
                                        "font": "sans-serif"
                                    }
                                }
                            }
                        ]
                    },
                    {
                        "id": "Background Image - local URL",
                        "module": "html/Div",
                        "attributes": {
                            "backgroundImage": "/brill_cms/cranes.png",
                            "style": {
                                "position": "relative",
                                "display": "flex",
                                "flexDirection": "row",
                                "backgroundSize": "cover",
                                "height": "80px"
                            }
                        },
                        "children": [
                            {
                                "id": "Border",
                                "module": "html/Div",
                                "attributes": {
                                    "style": {
                                        "margin": "10px",
                                        "width": "40px",
                                        "height": "40px",
                                        "borderStyle": "solid",
                                        "borderColor": "white",
                                        "borderWidth": "1px"
                                    }
                                }
                            },
                            {
                                "id": "Shadow",
                                "module": "html/Div",
                                "attributes": {
                                    "style": {
                                        "margin": "10px",
                                        "width": "40px",
                                        "height": "40px",
                                        "background": "#B91C1C",
                                        "boxShadow": "5px 10px 18px"
                                    }
                                }
                            },
                            {
                                "id": "Rounded",
                                "module": "html/Div",
                                "attributes": {
                                    "style": {
                                        "margin": "10px",
                                        "width": "40px",
                                        "height": "40px",
                                        "background": "yellow",
                                        "borderRadius": "10px"
                                    }
                                }
                            },
                            {
                                "id": "Opacity",
                                "module": "html/Div",
                                "attributes": {
                                    "style": {
                                        "margin": "10px",
                                        "width": "40px",
                                        "height": "40px",
                                        "background": "#1D4ED8",
                                        "opacity": "0.3"
                                    }
                                }
                            },
                            {
                                "id": "Topic",
                                "module": "html/Div",
                                "attributes": {
                                    "subscribeToTopic": "username",
                                    "style": {
                                        "font": "sans-serif"
                                    }
                                }
                            }
                        ]
                    },
                    {
                        "id": "RelativeWithAbsoluteDiv",
                        "module": "html/Div",
                        "attributes": {
                            "style": {
                                "position": "relative"
                            }
                        },
                        "children": [
                            {
                                "id": "Absolute",
                                "module": "html/Div",
                                "attributes": {
                                    "style": {
                                        "position": "absolute",
                                        "top": "-150px",
                                        "left": "400px",
                                        "margin": "10px",
                                        "width": "400px",
                                        "height": "50px",
                                        "background": "lightblue",
                                        "padding": "3px"
                                    },
                                    "text": "With absolute positioning, the parent div must have \"position\": \"relative\" and the child \"position\": \"absolute\"."
                                }
                            }
                        ]
                    },
                    {
                        "id": "Gradients",
                        "module": "html/Div",
                        "attributes": {
                            "style": {
                                "display": "flex",
                                "flexDirection": "row"
                            }
                        },
                        "children": [
                            {
                                "id": "Gradient-to-right",
                                "module": "html/Div",
                                "attributes": {
                                    "style": {
                                        "width": "300px",
                                        "height": "50px",
                                        "backgroundImage": "linear-gradient(to right, #B91C1C , yellow)"
                                    }
                                }
                            },
                            {
                                "id": "Gradient-to-bottom-right",
                                "module": "html/Div",
                                "attributes": {
                                    "style": {
                                        "width": "300px",
                                        "height": "50px",
                                        "backgroundImage": "linear-gradient(to bottom right, red, yellow)"
                                    }
                                }
                            },
                            {
                                "id": "Gradient-rainbow",
                                "module": "html/Div",
                                "attributes": {
                                    "style": {
                                        "width": "300px",
                                        "height": "50px",
                                        "backgroundImage": "linear-gradient(to top right, red,orange,yellow,green,blue,indigo,violet)"
                                    }
                                }
                            }
                        ]
                    },
                    {
                        "id": "HeadingLarge-1",
                        "module": "html/Div",
                        "attributes": {
                            "style": {
                                "paddingTop": "2.5rem",
                                "marginBottom": "0.75rem",
                                "fontSize": "2.25rem",
                                "lineHeight": "2.5rem",
                                "fontWeight": 900,
                                "color": "grey"
                            },
                            "text": "This is a large heading using a Div."
                        }
                    },
                    {
                        "id": "HeadingMedium",
                        "module": "html/Div",
                        "attributes": {
                            "style": {
                                "paddingTop": "2rem",
                                "marginBottom": "0.75rem",
                                "fontSize": "1.875rem",
                                "lineHeight": "2.25rem",
                                "fontWeight": 900,
                                "color": "grey"
                            },
                            "text": "This is a medium heading using a Div."
                        }
                    },
                    {
                        "id": "HeadingSmall",
                        "module": "html/Div",
                        "attributes": {
                            "style": {
                                "paddingTop": "2rem",
                                "marginBottom": "0.75rem",
                                "fontSize": "1.5rem",
                                "lineHeight": "2rem",
                                "fontWeight": 900,
                                "color": "grey"
                            },
                            "text": "This is a small heading using a Div."
                        }
                    },
                    {
                        "id": "Quote",
                        "module": "html/Div",
                        "attributes": {
                            "style": {
                                "paddingTop": "0.25rem",
                                "paddingBottom": "0.25rem",
                                "paddingLeft": "1.5rem",
                                "marginTop": "2rem",
                                "marginBottom": "2rem",
                                "borderLeftStyle": "solid",
                                "borderLeftWidth": "4px",
                                "borderColor": "#EC4899",
                                "fontSize": "1.5rem",
                                "lineHeight": "2rem"
                            }
                        },
                        "children": [
                            {
                                "id": "Text",
                                "module": "html/P",
                                "attributes": {
                                    "style": {
                                        "fontSize": "1.5rem",
                                        "lineHeight": "2rem",
                                        "fontStyle": "italic",
                                        "color": "grey"
                                    },
                                    "text": "Once a new technology rolls over you, if you're not part of the steamroller, you're part of the road."
                                }
                            }
                        ]
                    },
                    {
                        "id": "Flex Row Layout-1",
                        "module": "html/Div",
                        "attributes": {
                            "style": {
                                "display": "flex",
                                "flexDirection": "row",
                                "flexWrap": "wrap",
                                "padding": "10px"
                            }
                        },
                        "children": [
                            {
                                "id": "D-1",
                                "module": "html/Div",
                                "attributes": {
                                    "style": {
                                        "margin": "10px",
                                        "display": "inline-flex",
                                        "paddingTop": "0.25rem",
                                        "paddingBottom": "0.25rem",
                                        "paddingLeft": "0.5rem",
                                        "paddingRight": "0.5rem",
                                        "alignItems": "center",
                                        "borderStyle": "solid",
                                        "borderWidth": "1px",
                                        "borderRadius": "0.375rem",
                                        "boxShadow": "var(--tw-ring-inset) 0 0 0 calc(1px + var(--tw-ring-offset-width)) var(--tw-ring-color)",
                                        "--tw-ring-inset": "inset",
                                        "fontSize": "0.75rem",
                                        "lineHeight": "1rem",
                                        "fontWeight": 500,
                                        "color": "#4B5563",
                                        "backgroundColor": "#F9FAFB"
                                    },
                                    "text": "Gray Section"
                                }
                            },
                            {
                                "id": "D-3",
                                "module": "html/Div",
                                "attributes": {
                                    "style": {
                                        "margin": "10px",
                                        "display": "inline-flex",
                                        "paddingTop": "0.25rem",
                                        "paddingBottom": "0.25rem",
                                        "paddingLeft": "0.5rem",
                                        "paddingRight": "0.5rem",
                                        "alignItems": "center",
                                        "borderStyle": "solid",
                                        "borderWidth": "1px",
                                        "borderRadius": "0.375rem",
                                        "boxShadow": "var(--tw-ring-inset) 0 0 0 calc(1px + var(--tw-ring-offset-width)) var(--tw-ring-color)",
                                        "--tw-ring-inset": "inset",
                                        "fontSize": "0.75rem",
                                        "lineHeight": "1rem",
                                        "fontWeight": 500,
                                        "color": "#92400E",
                                        "backgroundColor": "#FFFBEB"
                                    },
                                    "text": "Yellow Section"
                                }
                            },
                            {
                                "id": "D-4",
                                "module": "html/Div",
                                "attributes": {
                                    "style": {
                                        "margin": "10px",
                                        "display": "inline-flex",
                                        "paddingTop": "0.25rem",
                                        "paddingBottom": "0.25rem",
                                        "paddingLeft": "0.5rem",
                                        "paddingRight": "0.5rem",
                                        "alignItems": "center",
                                        "borderStyle": "solid",
                                        "borderWidth": "1px",
                                        "borderRadius": "0.375rem",
                                        "boxShadow": "var(--tw-ring-inset) 0 0 0 calc(1px + var(--tw-ring-offset-width)) var(--tw-ring-color)",
                                        "--tw-ring-inset": "inset",
                                        "fontSize": "0.75rem",
                                        "lineHeight": "1rem",
                                        "fontWeight": 500,
                                        "color": "#047857",
                                        "backgroundColor": "#ECFDF5"
                                    },
                                    "text": "Green Section"
                                }
                            },
                            {
                                "id": "D-2",
                                "module": "html/Div",
                                "attributes": {
                                    "style": {
                                        "margin": "10px",
                                        "display": "inline-flex",
                                        "paddingTop": "0.25rem",
                                        "paddingBottom": "0.25rem",
                                        "paddingLeft": "0.5rem",
                                        "paddingRight": "0.5rem",
                                        "alignItems": "center",
                                        "borderStyle": "solid",
                                        "borderWidth": "1px",
                                        "borderRadius": "0.375rem",
                                        "boxShadow": "var(--tw-ring-inset) 0 0 0 calc(1px + var(--tw-ring-offset-width)) var(--tw-ring-color)",
                                        "--tw-ring-inset": "inset",
                                        "fontSize": "0.75rem",
                                        "lineHeight": "1rem",
                                        "fontWeight": 500,
                                        "color": "#B91C1C",
                                        "backgroundColor": "#FEF2F2"
                                    },
                                    "text": "Red Section"
                                }
                            },
                            {
                                "id": "D-5",
                                "module": "html/Div",
                                "attributes": {
                                    "style": {
                                        "margin": "10px",
                                        "display": "inline-flex",
                                        "paddingTop": "0.25rem",
                                        "paddingBottom": "0.25rem",
                                        "paddingLeft": "0.5rem",
                                        "paddingRight": "0.5rem",
                                        "alignItems": "center",
                                        "borderStyle": "solid",
                                        "borderWidth": "1px",
                                        "borderRadius": "0.375rem",
                                        "boxShadow": "var(--tw-ring-inset) 0 0 0 calc(1px + var(--tw-ring-offset-width)) var(--tw-ring-color)",
                                        "--tw-ring-inset": "inset",
                                        "fontSize": "0.75rem",
                                        "lineHeight": "1rem",
                                        "fontWeight": 500,
                                        "color": "#1D4ED8",
                                        "backgroundColor": "#EFF6FF"
                                    },
                                    "text": "Blue Section"
                                }
                            },
                            {
                                "id": "D-6",
                                "module": "html/Div",
                                "attributes": {
                                    "style": {
                                        "margin": "10px",
                                        "display": "inline-flex",
                                        "paddingTop": "0.25rem",
                                        "paddingBottom": "0.25rem",
                                        "paddingLeft": "0.5rem",
                                        "paddingRight": "0.5rem",
                                        "alignItems": "center",
                                        "borderStyle": "solid",
                                        "borderWidth": "1px",
                                        "borderRadius": "0.375rem",
                                        "boxShadow": "var(--tw-ring-inset) 0 0 0 calc(1px + var(--tw-ring-offset-width)) var(--tw-ring-color)",
                                        "--tw-ring-inset": "inset",
                                        "fontSize": "0.75rem",
                                        "lineHeight": "1rem",
                                        "fontWeight": 500,
                                        "color": "#4338CA",
                                        "backgroundColor": "#EEF2FF"
                                    },
                                    "text": "Indigo Section"
                                }
                            },
                            {
                                "id": "D-7",
                                "module": "html/Div",
                                "attributes": {
                                    "style": {
                                        "margin": "10px",
                                        "display": "inline-flex",
                                        "paddingTop": "0.25rem",
                                        "paddingBottom": "0.25rem",
                                        "paddingLeft": "0.5rem",
                                        "paddingRight": "0.5rem",
                                        "alignItems": "center",
                                        "borderStyle": "solid",
                                        "borderWidth": "1px",
                                        "borderRadius": "0.375rem",
                                        "boxShadow": "var(--tw-ring-inset) 0 0 0 calc(1px + var(--tw-ring-offset-width)) var(--tw-ring-color)",
                                        "--tw-ring-inset": "inset",
                                        "fontSize": "0.75rem",
                                        "lineHeight": "1rem",
                                        "fontWeight": 500,
                                        "color": "#6D28D9",
                                        "backgroundColor": "#F5F3FF"
                                    },
                                    "text": "Purple Section"
                                }
                            },
                            {
                                "id": "D-8",
                                "module": "html/Div",
                                "attributes": {
                                    "style": {
                                        "margin": "10px",
                                        "display": "inline-flex",
                                        "paddingTop": "0.25rem",
                                        "paddingBottom": "0.25rem",
                                        "paddingLeft": "0.5rem",
                                        "paddingRight": "0.5rem",
                                        "alignItems": "center",
                                        "borderStyle": "solid",
                                        "borderWidth": "1px",
                                        "borderRadius": "0.375rem",
                                        "boxShadow": "var(--tw-ring-inset) 0 0 0 calc(1px + var(--tw-ring-offset-width)) var(--tw-ring-color)",
                                        "--tw-ring-inset": "inset",
                                        "fontSize": "0.75rem",
                                        "lineHeight": "1rem",
                                        "fontWeight": 500,
                                        "color": "#BE185D",
                                        "backgroundColor": "#FDF2F8"
                                    },
                                    "text": "Pink Section"
                                }
                            }
                        ]
                    }
                ]
            }
        ]
    }
}