{
    "pageDescrip": "Data Table",
    "permission": "cms_user",
    "rootComponent": {
        "id": "ErrorBoundary",
        "module": "react/ErrorBoundary",
        "attributes": {},
        "children": [
            {
                "id": "ThemeProvider",
                "module": "material_ui/theme/ThemeProvider",
                "attributes": {
                    "style": {
                        "minHeight": "100vh",
                        "padding": "20px"
                    },
                    "themeTopic": "/Themes/storybook_theme_light.json",
                    "themeTopicDark": "/Themes/storybook_theme_dark.json"
                },
                "children": [
                    {
                        "id": "Module",
                        "module": "material_ui/text/Typography",
                        "attributes": {
                            "variant": "h3",
                            "gutterBottom": true,
                            "text": "material_ui/table/DataTable"
                        }
                    },
                    {
                        "id": "Attributes",
                        "module": "material_ui/text/Xhtml",
                        "attributes": {
                            "text": "<p>The DataTable component is based on <a href=\"https://github.com/gregnb/mui-datatables\" style=\"color: #3b82ff\" target=\"_blank\">mui-datatables</a>. It supports server side paging and can handle millions of rows. With server side paging, only the data currently on view is downloaded to the browser. Searching and sorting are performed on the server. There are many features like drag and drop, re-ordering of columns, export to CSV and various search options. The component supports actions such as creating new rows and editing rows using custom dialog windows created using the CMS.\n<table cellpadding=\"7\">\n<tr><td>title</td><td>Table title.</td></tr>\n<tr><td>size</td><td>Table size (<b>small</b>, <b>medium</b> or <b>large</b>).</td></tr>\n<tr><td>padding</td><td>The padding or <b>none</b>.</td></tr>\n<tr><td>subscribeToTopic</td><td>The JavaScript to access the database.</td></tr>\n<tr><td>columns</td><td>List of the column names and types.</td></tr>\n<tr><td>options</td><td>Table options.</td></tr>\n<tr><td>newRoute</td><td>Route for a page to create a new row.</td></tr>\n<tr><td>editRoute</td><td>Route for a page to edit a row.</td></tr>\n<tr><td>duplicateRoute</td><td>Route for a page to duplicate a row.</td></tr>\n<tr><td>deleteRoute</td><td>Route for a page to confirm deletion of a row.</td></tr>\n</table>\n</p>\n<p style=\"color: #B91C1C\"><b>Known Issue:</b> The mui-datatable component captures <u>all</u> drag and drop events and doesn't pass the events on to other components. This means that drag and drag of page components and tabs within the CMS doesn't work when a Data Table component is displayed.\n</p>"
                        }
                    },
                    {
                        "id": "^Table1",
                        "module": "material_ui/table/DataTable",
                        "attributes": {
                            "title": "Employees",
                            "size": "small",
                            "padding": "none",
                            "subscribeToTopic": "/Database/employee/readPage.js",
                            "columns": [
                                {
                                    "name": "employee_id",
                                    "label": "Employee Id",
                                    "options": {
                                        "filter": true,
                                        "filterType": "textField"
                                    }
                                },
                                {
                                    "name": "first_name",
                                    "label": "First Name",
                                    "options": {
                                        "filter": true,
                                        "filterType": "textField"
                                    }
                                },
                                {
                                    "name": "last_name",
                                    "label": "Last Name",
                                    "options": {
                                        "filter": true,
                                        "filterType": "textField"
                                    }
                                },
                                {
                                    "name": "department",
                                    "label": "Department",
                                    "options": {
                                        "filter": true,
                                        "filterType": "textField"
                                    }
                                }
                            ],
                            "options": {
                                "serverSide": true,
                                "rowsPerPage": 15,
                                "selectableRowsOnClick": true,
                                "selectableRows": "multiple",
                                "selectableRowsHideCheckboxes": false,
                                "filter": true,
                                "search": true,
                                "print": true,
                                "download": true,
                                "viewColumns": true,
                                "resizableColumns": true,
                                "customToolbar": null,
                                "draggableColumns": {
                                    "enabled": true
                                },
                                "responsive": "vertical",
                                "count": 45,
                                "tableId": "0541045596945114"
                            },
                            "newRoute": "",
                            "editRoute": "",
                            "duplicateRoute": "",
                            "deleteRoute": ""
                        }
                    }
                ]
            }
        ]
    }
}