{
    "pageDescrip": "Data Table",
    "permission": "cms_user",
    "rootComponent": {
        "id": "ErrorBoundary",
        "module": "react/ErrorBoundary",
        "attributes": {},
        "children": [
            {
                "id": "ThemeProvider",
                "module": "material_ui/theme/ThemeProvider",
                "attributes": {
                    "style": {
                        "minHeight": "100vh",
                        "padding": "20px"
                    },
                    "themeTopic": "/Themes/storybook_theme_light.json",
                    "themeTopicDark": "/Themes/storybook_theme_dark.json"
                },
                "children": [
                    {
                        "id": "Module",
                        "module": "material_ui/text/Typography",
                        "attributes": {
                            "variant": "h3",
                            "gutterBottom": true,
                            "text": "material_ui/table/Table"
                        }
                    },
                    {
                        "id": "Attributes",
                        "module": "material_ui/text/Xhtml",
                        "attributes": {
                            "text": "<p>The Table component is based on <a href=\"https://mui.com/material-ui/react-table/\" style=\"color: #3b82ff\" target=\"_blank\">Material UI Table</a> component. The component displays a simple read only table. For a table component that supports paging and sorting, use the Data Grid or DataTable component.\n<table cellpadding=\"7\">\n\n<tr><td>size [optional]</td><td><code>small</code> or <code>medium</code>.</td></tr>\n<tr><td>subscribeToTopic</td><td>The JavaScript to access the database.</td></tr>\n<tr><td>columns</td><td>List of the column names and labels.</td></tr>\n<tr><td>maxRows [optional]</td><td>Limits the size of the table to the specified number of rows.</td></tr>\n</table>\n</p>"
                        }
                    },
                    {
                        "id": "^Table1",
                        "module": "material_ui/table/Table",
                        "attributes": {
                            "size": "small",
                            "style": {
                                "margin": "30px"
                            },
                            "padding": "10px",
                            "maxRows": 20,
                            "initialState": {
                                "pagination": {
                                    "paginationModel": {
                                        "page": 0,
                                        "pageSize": 10
                                    }
                                }
                            },
                            "pageSizeOptions": [
                                5,
                                10,
                                20,
                                50
                            ],
                            "subscribeToTopic": "/Database/employee/readPage.js",
                            "columns": [
                                {
                                    "name": "employee_id",
                                    "label": "Employee Id"
                                },
                                {
                                    "name": "first_name",
                                    "label": "First Name"
                                },
                                {
                                    "name": "last_name",
                                    "label": "Last Name"
                                },
                                {
                                    "name": "department",
                                    "label": "Department"
                                }
                            ]
                        }
                    }
                ]
            }
        ]
    }
}