{
    "palette": {
        "mode": "dark",
        "primary": {
            "main": "#3377ff",
            "contrastText": "#b0b0b0"
        },
        "secondary": {
            "main": "#ef4fa6"
        },
        "contrastThreshold": 3,
        "tonalOffset": 0.2
    },
    "typography": {
        "body": {
            "style": {
                "margin": "0px",
                "overflowX": "hidden",
                "minWidth": "320px",
                "minHeight": "100vh",
                "fontSize": "14px",
                "lineHeight": "1.4285em"
            }
        },
        "h1": {
            "font": "-apple-system, BlinkMacSystemFont, \"Segoe UI\", \"Roboto\", \"Noto Sans\", \"Ubuntu\", \"Droid Sans\", \"Helvetica Neue\", sans-serif;",
            "fontSize": "1.4rem",
            "@media (min-width:700px)": {
                "fontSize": "1.5rem"
            },
            "fontWeight": 700
        },
        "h2": {
            "font": "-apple-system, BlinkMacSystemFont, \"Segoe UI\", \"Roboto\", \"Noto Sans\", \"Ubuntu\", \"Droid Sans\", \"Helvetica Neue\", sans-serif;",
            "fontSize": "1.3rem",
            "@media (min-width:700px)": {
                "fontSize": "1.4rem"
            },
            "fontWeight": 600
        },
        "h3": {
            "font": "-apple-system, BlinkMacSystemFont, \"Segoe UI\", \"Roboto\", \"Noto Sans\", \"Ubuntu\", \"Droid Sans\", \"Helvetica Neue\", sans-serif;",
            "fontSize": "1.0rem",
            "@media (min-width:700px)": {
                "fontSize": "1.2rem"
            },
            "fontWeight": 600
        },
        "h4": {
            "font": "-apple-system, BlinkMacSystemFont, \"Segoe UI\", \"Roboto\", \"Noto Sans\", \"Ubuntu\", \"Droid Sans\", \"Helvetica Neue\", sans-serif;",
            "fontSize": "0.9rem",
            "textDecoration": "underline",
            "@media (min-width:700px)": {
                "fontSize": "1.15rem"
            },
            "fontWeight": 500
        },
        "h5": {
            "font": "-apple-system, BlinkMacSystemFont, \"Segoe UI\", \"Roboto\", \"Noto Sans\", \"Ubuntu\", \"Droid Sans\", \"Helvetica Neue\", sans-serif;",
            "fontSize": "0.9rem",
            "@media (min-width:700px)": {
                "fontSize": "1.15rem"
            },
            "fontWeight": 400
        },
        "h6": {
            "font": "-apple-system, BlinkMacSystemFont, \"Segoe UI\", \"Roboto\", \"Noto Sans\", \"Ubuntu\", \"Droid Sans\", \"Helvetica Neue\", sans-serif;",
            "fontSize": "0.8rem",
            "@media (min-width:700px)": {
                "fontSize": "1.05rem"
            },
            "fontWeight": 600,
            "color": "#308046",
            "textDecoration": "underline",
            "marginTop": "0.6rem",
            "marginBottom": "0.4rem"
        },
        "body1": {
            "font": "-apple-system, BlinkMacSystemFont, \"Segoe UI\", \"Roboto\", \"Noto Sans\", \"Ubuntu\", \"Droid Sans\", \"Helvetica Neue\", sans-serif;",
            "fontSize": "0.9rem",
            "@media (min-width:700px)": {
                "fontSize": "1.15rem"
            }
        },
        "body2": {
            "font": "-apple-system, BlinkMacSystemFont, \"Segoe UI\", \"Roboto\", \"Noto Sans\", \"Ubuntu\", \"Droid Sans\", \"Helvetica Neue\", sans-serif;",
            "fontSize": "0.9rem",
            "@media (min-width:700px)": {
                "fontSize": "1.05rem"
            }
        },
        "pre": {
            "background": "#f4f4f4",
            "border": "1px solid #ddd",
            "color": "#303030",
            "pageBreakInside": "avoid",
            "font": "normal normal 14px/16px \"Courier New\",Courier,Monospace",
            "fontSize": "0.9rem",
            "@media (min-width:700px)": {
                "fontSize": "1.15rem"
            },
            "lineHeight": "1.0",
            "marginBottom": "1.6em",
            "maxWidth": "100%",
            "padding": ".5em 1em",
            "display": "block",
            "wordWrap": "break-word",
            "overflow": "auto",
            "overflowX": "auto",
            "whiteSpace": "pre-wrap",
            "counterReset": "line"
        },
        "blockquote": {
            "fontFamily": "-apple-system, BlinkMacSystemFont, \"Segoe UI\", \"Roboto\", \"Noto Sans\", \"Ubuntu\", \"Droid Sans\", \"Helvetica Neue\", sans-serif;",
            "fontSize": "0.9rem",
            "@media (min-width:700px)": {
                "fontSize": "1.15rem"
            }
        },
        "code": {
            "background": "#f4f4f4",
            "border": "0px",
            "color": "#303030",
            "pageBreakInside": "avoid",
            "font": "normal normal 14px/16px \"Courier New\",Courier,Monospace",
            "fontSize": "0.9rem",
            "@media (min-width:700px)": {
                "fontSize": "1.15rem"
            },
            "lineHeight": "1.0",
            "marginBottom": "0.6em",
            "maxWidth": "100%",
            "wordWrap": "break-word",
            "overflow": "auto",
            "overflowX": "auto",
            "whiteSpace": "pre-wrap",
            "counterReset": "line"
        },
        "ul": {
            "fontFamily": "-apple-system, BlinkMacSystemFont, \"Segoe UI\", \"Roboto\", \"Noto Sans\", \"Ubuntu\", \"Droid Sans\", \"Helvetica Neue\", sans-serif;",
            "fontSize": "0.9rem",
            "@media (min-width:700px)": {
                "fontSize": "1.15rem",
                "lineHeight": "1.8rem"
            }
        },
        "ol": {
            "fontFamily": "-apple-system, BlinkMacSystemFont, \"Segoe UI\", \"Roboto\", \"Noto Sans\", \"Ubuntu\", \"Droid Sans\", \"Helvetica Neue\", sans-serif;",
            "fontSize": "0.9rem",
            "@media (min-width:700px)": {
                "fontSize": "1.15rem",
                "lineHeight": "1.8rem"
            }
        },
        "img": {
            "maxWidth": "100%",
            "height": "auto",
            "width": "auto"
        }
    },
    "mixins": {
        "TreeView": {
            "icons": [
                {
                    "type": "leaf",
                    "matches": "(.txt)$",
                    "iconName": "SubjectTwoTone",
                    "style": {
                        "color": "#df4454"
                    }
                },
                {
                    "type": "branch",
                    "matches": "git:status:/Staged",
                    "iconName": "FolderOpenTwoTone",
                    "style": {
                        "color": "#8bbc51"
                    }
                },
                {
                    "type": "branch",
                    "matches": "git:status:/Changed",
                    "iconName": "FolderOpenTwoTone",
                    "style": {
                        "color": "#feb743"
                    }
                },
                {
                    "type": "branch",
                    "matches": "git:stashlist:/",
                    "iconName": "FolderSpecialTwoTone",
                    "style": {
                        "color": "#9878e3"
                    }
                },
                {
                    "type": "leaf",
                    "matches": "git:stashfolder:/",
                    "iconName": "BusinessCenterTwoTone",
                    "style": {
                        "color": "#9878e3"
                    }
                },
                {
                    "type": "branch",
                    "matches": "git:status:/",
                    "iconName": "FolderOpenTwoTone",
                    "style": {
                        "color": "#aab2bf"
                    }
                },
                {
                    "type": "branch",
                    "matches": "Database",
                    "iconName": "FolderOpenTwoTone",
                    "style": {
                        "color": "#3eb0d4"
                    }
                },
                {
                    "type": "leaf",
                    "matches": ".*Database.*(.sql|.js)$",
                    "iconName": "file:/brill_cms/Icons/fixed/database-search.svg",
                    "style": {
                        "fill": "#3eb0d4"
                    }
                },
                {
                    "type": "branch",
                    "matches": "Icons",
                    "iconName": "FolderOpenTwoTone",
                    "style": {
                        "color": "#9878e3"
                    }
                },
                {
                    "type": "leaf",
                    "matches": "(.svg)$",
                    "iconName": "InsertPhotoTwoTone",
                    "style": {
                        "color": "#9878e3"
                    }
                },
                {
                    "type": "leaf",
                    "matches": ".*Icons.*(.json)$",
                    "iconName": "Wallpaper",
                    "style": {
                        "color": "#9878e3"
                    }
                },
                {
                    "type": "branch",
                    "matches": "Images",
                    "iconName": "FolderOpenTwoTone",
                    "style": {
                        "color": "#feb743"
                    }
                },
                {
                    "type": "leaf",
                    "matches": ".*(.png|.apng|.jpg|.jpeg|.gif|.bmp)$",
                    "iconName": "ImageTwoTone",
                    "style": {
                        "color": "#feb743"
                    }
                },
                {
                    "type": "leaf",
                    "matches": ".*(.md|.mkd|.mkdn|.mdown|.markdown)$",
                    "iconName": "SubjectTwoTone",
                    "style": {
                        "color": "#fe9793"
                    }
                },
                {
                    "type": "branch",
                    "matches": "Pages",
                    "iconName": "FolderOpenTwoTone",
                    "style": {
                        "color": "#498ada"
                    }
                },
                {
                    "type": "leaf",
                    "matches": ".*Pages.*(.json)$",
                    "iconName": "PagesTwoTone",
                    "style": {
                        "color": "#498ada"
                    }
                },
                {
                    "type": "branch",
                    "matches": "Resources",
                    "iconName": "FolderOpenTwoTone",
                    "style": {
                        "color": "#d472ab"
                    }
                },
                {
                    "type": "leaf",
                    "matches": ".*Resources.*(.json|.jsonc|.xml|.xhtml|.html)$",
                    "iconName": "DescriptionTwoTone",
                    "style": {
                        "color": "#d472ab"
                    }
                },
                {
                    "type": "branch",
                    "matches": "Themes",
                    "iconName": "FolderOpenTwoTone",
                    "style": {
                        "color": "#8bbc51"
                    }
                },
                {
                    "type": "leaf",
                    "matches": ".*Themes.*(.json)$",
                    "iconName": "StyleTwoTone",
                    "style": {
                        "color": "#8bbc51"
                    }
                },
                {
                    "type": "branch",
                    "matches": ".*/MediaLibrary/shared.*",
                    "iconName": "FolderOpenTwoTone",
                    "style": {
                        "color": "#8699fe"
                    }
                },
                {
                    "type": "branch",
                    "matches": ".*/MediaLibrary.*",
                    "iconName": "FolderOpenTwoTone",
                    "style": {
                        "color": "#e699fe"
                    }
                },
                {
                    "type": "branch",
                    "matches": ".*/[a-z0-9_]+$",
                    "iconName": "FolderOpenTwoTone",
                    "style": {
                        "color": "#df4454"
                    }
                },
                {
                    "type": "branch",
                    "matches": ".*/Storybook",
                    "iconName": "FolderOpenTwoTone",
                    "style": {
                        "color": "#434a54"
                    }
                }
            ],
            "buttons": [
                {
                    "subType": "changes",
                    "buttonList": [
                        {
                            "iconName": "RemoveCircleTwoTone",
                            "publishToTopic": "stash.dialog.open",
                            "toolTip": "Stash Changes",
                            "style": {
                                "height": "24px",
                                "color": "#9878e3"
                            }
                        },
                        {
                            "iconName": "RefreshTwoTone",
                            "publishToTopic": "git:refresh:/",
                            "toolTip": "Refresh",
                            "style": {
                                "height": "24px",
                                "color": "#498ada"
                            }
                        },
                        {
                            "iconName": "CheckCircleTwoTone",
                            "publishToTopic": "commit.dialog.open",
                            "toolTip": "Commit Changes",
                            "style": {
                                "height": "24px",
                                "color": "#8bbc51",
                                "marginRight": "10px"
                            }
                        }
                    ]
                },
                {
                    "subType": "gitChanged",
                    "buttonList": [
                        {
                            "iconName": "AddTwoTone",
                            "publishToTopic": "git:add:/{path}",
                            "toolTip": "Stage Change",
                            "style": {
                                "height": "24px",
                                "color": "#8bbc51",
                                "marginRight": "10px"
                            }
                        }
                    ]
                },
                {
                    "subType": "gitConflicting",
                    "buttonList": [
                        {
                            "iconName": "AddTwoTone",
                            "publishToTopic": "git:add:/{path}",
                            "toolTip": "Mark as merged",
                            "style": {
                                "height": "24px",
                                "color": "#9910d0",
                                "marginRight": "10px"
                            }
                        }
                    ]
                },
                {
                    "subType": "gitChangedDeleted",
                    "buttonList": [
                        {
                            "iconName": "AddTwoTone",
                            "publishToTopic": "git:rm:/{path}",
                            "toolTip": "Stage Deletion",
                            "style": {
                                "height": "24px",
                                "color": "#991010",
                                "marginRight": "10px"
                            }
                        }
                    ]
                },
                {
                    "subType": "gitStaged",
                    "buttonList": [
                        {
                            "iconName": "RemoveTwoTone",
                            "publishToTopic": "git:unstage:/{path}",
                            "toolTip": "Unstage Change",
                            "style": {
                                "height": "24px",
                                "color": "#feb743",
                                "marginRight": "10px"
                            }
                        }
                    ]
                },
                {
                    "subType": "gitStagedDeleted",
                    "buttonList": [
                        {
                            "iconName": "RemoveTwoTone",
                            "publishToTopic": "git:unstage:/{path}",
                            "toolTip": "Unstage Deletion",
                            "style": {
                                "height": "24px",
                                "color": "#feb743",
                                "marginRight": "10px"
                            }
                        }
                    ]
                },
                {
                    "subType": "stash",
                    "buttonList": [
                        {
                            "iconName": "DeleteTwoTone",
                            "publishToTopic": "git:stashdrop:/{path}",
                            "toolTip": "Delete Stash",
                            "style": {
                                "height": "24px",
                                "color": "#434a54"
                            }
                        },
                        {
                            "iconName": "SettingsBackupRestore",
                            "publishToTopic": "git:stashpop:/{path}",
                            "toolTip": "Restore stash",
                            "style": {
                                "height": "24px",
                                "color": "#feb743",
                                "marginRight": "10px"
                            }
                        }
                    ]
                }
            ]
        },
        "TabBarPane": {
            "modeBar": [
                {
                    "matches": "view:/.*/Pages/.*(.json)$",
                    "mode": [
                        {
                            "name": "VIEW",
                            "editor": "PageView"
                        }
                    ]
                },
                {
                    "matches": ".*/Pages/.*(.json)$",
                    "mode": [
                        {
                            "name": "EDIT",
                            "editor": "PageEditor"
                        },
                        {
                            "name": "JSON",
                            "editor": "TextEditor",
                            "schemasTopic": "json:/brill_cms/Resources/page_schemas.json"
                        },
                        {
                            "name": "PREVIEW",
                            "editor": "PagePreview"
                        },
                        {
                            "name": "DIFF",
                            "editor": "DiffEditor"
                        }
                    ]
                },
                {
                    "matches": ".*/Themes/.*(.json)$",
                    "mode": [
                        {
                            "name": "JSON",
                            "editor": "TextEditor"
                        },
                        {
                            "name": "DIFF",
                            "editor": "DiffEditor"
                        }
                    ]
                },
                {
                    "matches": "(.svg)$",
                    "mode": [
                        {
                            "name": "GRAPHIC",
                            "editor": "material_ui/icon/CustomIcon"
                        },
                        {
                            "name": "SVG",
                            "editor": "TextEditor"
                        }
                    ]
                },
                {
                    "matches": "(.png|.apng|.jpg|.jpeg|.gif|.bmp)$",
                    "mode": [
                        {
                            "name": "IMAGE",
                            "editor": "ImagePreview"
                        }
                    ]
                },
                {
                    "matches": "(.txt|.gitignore)$",
                    "mode": [
                        {
                            "name": "EDIT",
                            "editor": "TextEditor"
                        },
                        {
                            "name": "DIFF",
                            "editor": "DiffEditor"
                        }
                    ]
                },
                {
                    "matches": "(.md|.mkd|.mkdn|.mdown|.markdown)$",
                    "mode": [
                        {
                            "name": "VIEW",
                            "editor": "MarkdownViewer"
                        },
                        {
                            "name": "EDIT",
                            "editor": "TextEditor"
                        },
                        {
                            "name": "DIFF",
                            "editor": "DiffEditor"
                        }
                    ]
                },
                {
                    "matches": "(.js)$",
                    "mode": [
                        {
                            "name": "JS",
                            "editor": "TextEditor"
                        },
                        {
                            "name": "DIFF",
                            "editor": "DiffEditor"
                        }
                    ]
                },
                {
                    "matches": "(.sql)$",
                    "mode": [
                        {
                            "name": "SQL",
                            "editor": "TextEditor"
                        },
                        {
                            "name": "DIFF",
                            "editor": "DiffEditor"
                        }
                    ]
                },
                {
                    "matches": "(.json)$",
                    "mode": [
                        {
                            "name": "JSON",
                            "editor": "TextEditor"
                        },
                        {
                            "name": "DIFF",
                            "editor": "DiffEditor"
                        }
                    ]
                },
                {
                    "matches": "(.jsonc)$",
                    "mode": [
                        {
                            "name": "JSONC",
                            "editor": "TextEditor"
                        },
                        {
                            "name": "DIFF",
                            "editor": "DiffEditor"
                        }
                    ]
                },
                {
                    "matches": "(.xhtml|.html)$",
                    "mode": [
                        {
                            "name": "EDIT",
                            "editor": "XhtmlEditor"
                        },
                        {
                            "name": "XHTML",
                            "editor": "TextEditor"
                        },
                        {
                            "name": "PREVIEW",
                            "editor": "XhtmlPreview"
                        },
                        {
                            "name": "DIFF",
                            "editor": "DiffEditor"
                        }
                    ]
                }
            ]
        }
    },
    "components": {
        "MuiPaper": {
            "styleOverrides": {
                "root": {
                    "backgroundColor": "#1e1e1e"
                }
            }
        },
        "MenuButton": {
            "styleOverrides": {
                "root": {
                    "color": "white"
                },
                "button": {
                    "padding": "8px 8px 4px 8px"
                },
                "bar": {
                    "width": "100%",
                    "height": "5px",
                    "background": "red"
                }
            }
        },
        "Xhtml": {
            "styleOverrides": {
                "root": {
                    "paddingTop": "20px",
                    "paddingLeft": "5px",
                    "paddingRight": "5px",
                    "@media (min-width:700px)": {
                        "paddingLeft": "12px",
                        "paddingRight": "5px"
                    },
                    "paddingBottom": "50px"
                },
                "parserError": {
                    "background": "#FFDAE9",
                    "padding": "20px"
                }
            }
        },
        "MUIDataTableHeadCell": {
            "styleOverrides": {
                "fixedHeader": {
                    "backgroundColor": "#1e692e",
                    "color": "#ddd",
                    "fontWeight": 800
                }
            }
        },
        "MUIDataTableSelectCell": {
            "styleOverrides": {
                "headerCell": {
                    "backgroundColor": "#1e692e",
                    "paddingLeft": "16px"
                }
            }
        },
        "TabName": {
            "styleOverrides": {
                "tabActive": {
                    "background": "#a0a0a0"
                },
                "tabActiveX": {
                    "background": "#a0a0a0"
                },
                "tabInActive": {
                    "background": "#606060"
                },
                "tabInActiveX": {
                    "background": "#606060"
                }
            }
        },
        "TabBarPane": {
            "styleOverrides": {
                "tabsRoot": {
                    "background": "#404040"
                },
                "modesRoot": {
                    "background": "#a0a0a0"
                }
            }
        },
        "ResizablePanels": {
            "styleOverrides": {
                "splitIconDiv": {
                    "backgroundColor": "#404040"
                }
            }
        },
        "StylesDropdown": {
            "styleOverrides": {
                "root": {
                    "background": "#a0a0a0"
                },
                "select": {
                    "background": "#a0a0a0"
                }
            }
        },
        "DraggableBox": {
            "styleOverrides": {
                "containerBox": {
                    "border": "1px dashed #6080ff"
                },
                "componentBox": {
                    "border": "1px dotted #6080ff"
                },
                "selectedContainerBox": {
                    "border": "1px solid #9090ff"
                },
                "selectedComponentBox": {
                    "border": "1px solid #9090ff"
                }
            }
        },
        "Text": {
            "styleOverrides": {
                "root": {
                    "color": "white"
                    }
            }
        }
    }
}