{
    "$schema": "schema://brill.software/page_schema.json",
    "pageDescrip": "Upload Files Dialog",
    "permission": "cms_user",
    "rootComponent": {
        "id": "ErrorBoundary",
        "module": "react/ErrorBoundary",
        "attributes": {},
        "children": [
            {
                "id": "ThemeProvider",
                "module": "material_ui/theme/ThemeProvider",
                "attributes": {
                    "style": {
                        "minHeight": "100vh",
                        "padding": "20px"
                    },
                    "themeTopic": "/Themes/storybook_theme_light.json",
                    "themeTopicDark": "/Themes/storybook_theme_dark.json"
                },
                "children": [
                    {
                        "id": "Module",
                        "module": "material_ui/text/Typography",
                        "attributes": {
                            "variant": "h3",
                            "gutterBottom": true,
                            "text": "material_ui/dialog/UploadFilesDialog"
                        }
                    },
                    {
                        "id": "Attributes",
                        "module": "material_ui/text/Xhtml",
                        "attributes": {
                            "text": "<p>\nUploads one or more files from the browser computer to the workspace on the server. The user must have the <code>file_write</code> permission.\n<table cellpadding=\"7\">\n<tr><td>title</td><td>Dialog title.</td></tr>\n<tr><td>prompt1 [optional]</td><td>Prompt for upload folder.</td></tr>\n<tr><td>prompt2 [optional]</td><td>Prompt for the Drop Zone.</td></tr>\n<tr><td>prompt3 [optional]</td><td>Prompt for No files selected.</td></tr>\n<tr><td>prompt4 [optional]</td><td>Prompt with any warnings and information.</td></tr>\n<tr><td>buttonLabel</td><td>The Submit button label.</td></tr>\n<tr><td>folder [optional]</td><td>The upload folder. Use when there's just a single folder for uploads.</td></tr>\n<tr><td>subscribeToTopic</td><td>The topic content contains the upload folder. When a folder is already supplied using the folder attribute, set to <b>true</b> to open the dialog.</td></tr>\n<tr><td>noOverwrite</td><td>When <b>true</b>, a version number is added to the file name if the file already exists on the server, so that the original file isn't overwritten.</td></tr>\n<tr><td>theme</td><td><code>theme.components.UploadFilesDialog.styleOverrides .root, .dropZone, .fileListBox, browseButton, prompt4, submitButton and .closeButton</code></td></tr>\n</table>\n</p>\n<p><b>To preview, use the Preview mode and click the play icon below.</b></p>"
                        }
                    },
                    {
                        "id": "FileUploadDialog",
                        "module": "material_ui/dialog/UploadFileDialog",
                        "attributes": {
                            "title": "Upload Files",
                            "prompt1": "Upload folder: ",
                            "prompt4": "Click on the Upload Files button to upload the files to Storybook/Uploads folder.",
                            "buttonLabel": "Upload Files",
                            "noOverwrite": false,
                            "folder": "Storybook/Uploads",
                            "subscribeToTopic": "storybook.uploadFilesDialog.open"
                        }
                    },
                    {
                        "id": "Open Upload Files Dialog",
                        "module": "material_ui/button/IconButton",
                        "attributes": {
                            "tooltip": "Open Upload Files Dialog",
                            "iconName": "PlayCircleTwoTone",
                            "publishToTopic": "storybook.uploadFilesDialog.open",
                            "action": true
                        }
                    }
                ]
            }
        ]
    }
}