{
    "$schema": "schema://brill.software/page_schema.json",
    "pageDescrip": "CMS User Admin Page",
    "permission": "cms_admin",
    "rootComponent": {
        "id": "ErrorBoundary",
        "module": "react/ErrorBoundary",
        "attributes": {
            "key": "errorBoundary"
        },
        "children": [
            {
                "id": "themeProvider",
                "module": "material_ui/theme/ThemeProvider",
                "attributes": {
                    "key": "themeProvider",
                    "style": {
                        "minHeight": "100vh"
                    },
                    "themeTopic": "/Themes/brill_cms_theme_light.json",
                    "themeTopicDark": "/Themes/brill_cms_theme_dark.json"
                },
                "children": [
                    {
                        "id": "embedHeader",
                        "module": "material_ui/layout/EmbeddedPage",
                        "attributes": {
                            "key": "embedHeader",
                            "subscribeToTopic": "/Pages/header.json"
                        }
                    },
                    {
                        "id": "alertBox",
                        "module": "material_ui/alert/Alert",
                        "attributes": {
                            "subscribeToTopic": "app:errors:",
                            "clearOnChangeToTopic": "app:any:",
                            "elevation": 12,
                            "style": {
                                "cursor": "move",
                                "position": "relative",
                                "top": "15px",
                                "left": "15px"
                            }
                        }
                    },
                    {
                        "id": "homePage",
                        "module": "material_ui/text/Xhtml",
                        "attributes": {
                            "subscribeToTopic": "/Resources/admin.xhtml"
                        }
                    },
                    {
                        "id": "adminContainer",
                        "module": "material_ui/layout/Container",
                        "attributes": {
                            "maxWidth": "xl",
                            "fixed": false,
                            "disableGutters": false
                        },
                        "children": [
                            {
                                "id": "^Table1",
                                "module": "material_ui/table/DataTable",
                                "attributes": {
                                    "title": "Users",
                                    "size": "small",
                                    "padding": "none",
                                    "subscribeToTopic": "/Database/admin/readUsers.js",
                                    "publishToTopic": "users.tableRow",
                                    "columns": [
                                        {
                                            "name": "user_id",
                                            "label": "User Id",
                                            "options": {
                                                "filter": true,
                                                "filterType": "textField"
                                            }
                                        },
                                        {
                                            "name": "username",
                                            "label": "Username",
                                            "options": {
                                                "filter": true,
                                                "filterType": "textField"
                                            }
                                        },
                                        {
                                            "name": "first_name",
                                            "label": "First Name",
                                            "options": {
                                                "filter": true,
                                                "filterType": "textField"
                                            }
                                        },
                                        {
                                            "name": "last_name",
                                            "label": "Last Name",
                                            "options": {
                                                "filter": true,
                                                "filterType": "textField"
                                            }
                                        },
                                        {
                                            "name": "email",
                                            "label": "Email",
                                            "options": {
                                                "filter": true,
                                                "filterType": "textField"
                                            }
                                        },
                                        {
                                            "name": "last_login",
                                            "label": "Last Login",
                                            "options": {
                                                "filter": true,
                                                "filterType": "textField"
                                            }
                                        },
                                        {
                                            "name": "workspace",
                                            "label": "Workspace",
                                            "options": {
                                                "filter": true,
                                                "filterType": "textField"
                                            }
                                        },
                                        {
                                            "name": "permissions",
                                            "label": "Permissions",
                                            "options": {
                                                "display": false,
                                                "filter": true,
                                                "filterType": "textField"
                                            }
                                        },
                                        {
                                            "name": "hidden_apps",
                                            "label": "Hidden Apps",
                                            "options": {
                                                "filter": true,
                                                "filterType": "textField"
                                            }
                                        },
                                        {
                                            "name": "changePassword",
                                            "label": "Change Password",
                                            "options": {
                                                "display": false,
                                                "filter": true,
                                                "filterType": "textField"
                                            }
                                        }
                                    ],
                                    "options": {
                                        "serverSide": false,
                                        "rowsPerPage": 100,
                                        "filter": true,
                                        "search": true,
                                        "print": true,
                                        "download": true,
                                        "viewColumns": true,
                                        "resizableColumns": true,
                                        "draggableColumns": {
                                            "enabled": true
                                        },
                                        "responsive": "vertical",
                                        "selectableRows": "none",
                                        "count": 33
                                    },
                                    "newRoute": "/${appName}/new",
                                    "editRoute": "/${appName}/edit",
                                    "newButtonLabel": "New User",
                                    "newButtonTooltip": "Create a new user.",
                                    "newPopover": "json:/${appName}/Pages/adminNew.json",
                                    "editDialog": "json:/${appName}/Pages/adminEdit.json",
                                    "deletePopover": "json:/${appName}/Pages/adminDelete.json",
                                    "subscribeToEditClose": "editUser.close",
                                    "subscribeToNotificationTopic": "userTable.notification",
                                    "deleteRoute": "/${appName}/delete"
                                }
                            }
                        ]
                    }
                ]
            }
        ]
    }
}