{
    "pageDescrip": "Form",
    "permission": "cms_user",
    "rootComponent": {
        "id": "ErrorBoundary",
        "module": "react/ErrorBoundary",
        "attributes": {},
        "children": [
            {
                "id": "ThemeProvider",
                "module": "material_ui/theme/ThemeProvider",
                "attributes": {
                    "style": {
                        "minHeight": "100vh",
                        "padding": "20px"
                    },
                    "themeTopic": "/Themes/storybook_theme_light.json",
                    "themeTopicDark": "/Themes/storybook_theme_dark.json"
                },
                "children": [
                    {
                        "id": "Module",
                        "module": "material_ui/text/Typography",
                        "attributes": {
                            "variant": "h3",
                            "gutterBottom": true,
                            "text": "material_ui/input/RadioGroup"
                        }
                    },
                    {
                        "id": "Attributes",
                        "module": "material_ui/text/Xhtml",
                        "attributes": {
                            "text": "<h3>Radio Group</h3>\n<p>Allows one item to be selected from a group. A Radio Group component should be enclosed within a form. Based on the \n<a href=\"https://mui.com/material-ui/react-radio-button/\" style=\"color: #3b82ff\" target=\"_blank\">Material-UI Radio Buttons Group</a> component.\n<table cellpadding=\"7\">\n<tr><td>label</td><td>The Radio Group label text.</td></tr>\n<tr><td>color</td><td><code>primary</code> or <code>secondary</code>.</td></tr>\n<tr><td>buttonsTopic</td><td>The topic that provides the radio button values and labels. e.g. <code>/Database/radioButtons.sql</code> . See below for the format of the JSON.</td></tr>\n<tr><td>labelPlacement</td><td><code>top</code>, <code>bottom</code>, <code>start</code> or <code>end</code>. The default is <code>end</code>.</td></tr>\n<tr><td>subscribeToTopic [optional]</td><td>Provides the initial value.</td></tr>\n<tr><td>publishToTopic</td><td>The topic to publish the selected radio button value. e.g. form#radioButton</td></tr>\n</table></p>\n"
                        }
                    },
                    {
                        "id": "Form",
                        "module": "material_ui/input/Form",
                        "attributes": {
                            "style": {
                                "width": "350px"
                            }
                        },
                        "children": [
                            {
                                "id": "Flex Column Layout",
                                "module": "html/Div",
                                "attributes": {
                                    "style": {
                                        "padding": "10px",
                                        "width": "700px",
                                        "display": "flex",
                                        "flexDirection": "column"
                                    }
                                },
                                "children": [
                                    {
                                        "id": "Flex Row Layout-1",
                                        "module": "html/Div",
                                        "attributes": {
                                            "style": {
                                                "display": "flex",
                                                "flexDirection": "row",
                                                "flexWrap": "wrap",
                                                "padding": "10px"
                                            }
                                        },
                                        "children": [
                                            {
                                                "id": "Radio",
                                                "module": "material_ui/input/RadioGroup",
                                                "attributes": {
                                                    "buttonsTopic": "/Resources/deliveryRadioButtons.json",
                                                    "publishToTopic": "storybook.radioDemo",
                                                    "label": "Delivery",
                                                    "color": "primary",
                                                    "style": {
                                                        "width": "200px"
                                                    }
                                                }
                                            },
                                            {
                                                "id": "Radio-1",
                                                "module": "material_ui/input/RadioGroup",
                                                "attributes": {
                                                    "buttonsTopic": "/Resources/deliveryRadioButtons.json",
                                                    "labelPlacement": "start",
                                                    "publishToTopic": "storybook.radioDemo",
                                                    "label": "Delivery (\"start\" label placement)",
                                                    "color": "secondary",
                                                    "style": {
                                                        "marginLeft": "20px",
                                                        "width": "270px"
                                                    }
                                                }
                                            }
                                        ]
                                    },
                                    {
                                        "id": "Flex Row Layout-2",
                                        "module": "html/Div",
                                        "attributes": {
                                            "style": {
                                                "display": "flex",
                                                "flexDirection": "row",
                                                "flexWrap": "wrap",
                                                "padding": "10px"
                                            }
                                        },
                                        "children": [
                                            {
                                                "id": "Text",
                                                "module": "html/Div",
                                                "attributes": {
                                                    "style": {
                                                        "fontSize": "20px",
                                                        "paddingRight": "10px"
                                                    },
                                                    "text": "Selected value: "
                                                }
                                            },
                                            {
                                                "id": "Value",
                                                "module": "html/Div",
                                                "attributes": {
                                                    "subscribeToTopic": "storybook.radioDemo",
                                                    "style": {
                                                        "fontSize": "20px",
                                                        "fontWeight": 900,
                                                        "color": "green"
                                                    }
                                                }
                                            }
                                        ]
                                    }
                                ]
                            }
                        ]
                    },
                    {
                        "id": "Text",
                        "module": "material_ui/text/Xhtml",
                        "attributes": {
                            "style": {
                                "fontSize": "20px",
                                "paddingTop": "15px",
                                "paddingBottom": "15px"
                            },
                            "text": "<p>/Resources/deliveryRadioButtons.json</p>"
                        }
                    },
                    {
                        "id": "Editor Container",
                        "module": "html/Div",
                        "attributes": {
                            "style": {
                                "height": "400px",
                                "width": "400px"
                            }
                        },
                        "children": [
                            {
                                "id": "^Text Editor",
                                "module": "material_ui/editor/TextEditor",
                                "attributes": {
                                    "id": "textEditor1",
                                    "options": {
                                        "lineNumbers": "off",
                                        "glyphMargin": false,
                                        "folding": false,
                                        "lineDecorationsWidth": 0,
                                        "lineNumbersMinChars": 0,
                                        "roundedSelection": true,
                                        "scrollBeyondLastLine": false,
                                        "fontWeight": 600,
                                        "readOnly": true
                                    },
                                    "fileName": "employee_data.json",
                                    "subscribeToTopic": "/Resources/deliveryRadioButtons.json",
                                    "publishTextChangedTopic": "storybook.TextEditor.textChanged"
                                }
                            }
                        ]
                    }
                ]
            }
        ]
    }
}